{
  "_invariants": [
    "summary 8장 합계 == pagination.totalCount (133)",
    "행 status 모두 PRD 8종, businessType 모두 4종",
    "코드는 P + 연도(4) + 일련번호(3) 형식 (총 8자)",
    "8종 상태 각각 rows에 최소 1건 등장",
    "salesOwner / supportLead는 본부 17명 호환 인물 5~8명 범위"
  ],
  "meta": {
    "asOf": "2026-05-07",
    "user": {
      "name": "김PMO 책임",
      "team": "PMO본부",
      "role": "관리자"
    },
    "notifications": 3
  },
  "summary": [
    {
      "id": "proposing",
      "label": "제안중",
      "code": "proposing",
      "value": 18,
      "unit": "건",
      "icon": "lightbulb"
    },
    {
      "id": "presented",
      "label": "발표완료",
      "code": "presented",
      "value": 10,
      "unit": "건",
      "icon": "presentation"
    },
    {
      "id": "win",
      "label": "WIN",
      "code": "win",
      "value": 14,
      "unit": "건",
      "icon": "trophy"
    },
    {
      "id": "loss",
      "label": "LOSS",
      "code": "loss",
      "value": 14,
      "unit": "건",
      "icon": "xCircle"
    },
    {
      "id": "drop",
      "label": "DROP",
      "code": "drop",
      "value": 7,
      "unit": "건",
      "icon": "arrowDown"
    },
    {
      "id": "running",
      "label": "수행중",
      "code": "running",
      "value": 42,
      "unit": "건",
      "icon": "play"
    },
    {
      "id": "support",
      "label": "업무지원",
      "code": "support",
      "value": 8,
      "unit": "건",
      "icon": "users"
    },
    {
      "id": "done",
      "label": "완료",
      "code": "done",
      "value": 20,
      "unit": "건",
      "icon": "checkCircle"
    }
  ],
  "rows": [
    {
      "no": 1,
      "code": "P2026003",
      "name": "모바일 채널 고도화",
      "businessType": "부사업",
      "status": "proposing",
      "certainty": "경쟁",
      "salesDept": "영업본부",
      "salesOwner": "박영업",
      "supportLead": "김PMO 책임",
      "fromDate": "2026-04-15",
      "toDate": "2026-06-30",
      "useStatus": "사용",
      "note": "-"
    },
    {
      "no": 2,
      "code": "P2026007",
      "name": "공공기관 정보화 컨설팅",
      "businessType": "주사업",
      "status": "proposing",
      "certainty": "우세",
      "salesDept": "공공사업본부",
      "salesOwner": "이수영",
      "supportLead": "정수영",
      "fromDate": "2026-05-02",
      "toDate": "2026-07-31",
      "useStatus": "사용",
      "note": "-"
    },
    {
      "no": 3,
      "code": "P2026009",
      "name": "그룹사 ERP 통합 제안",
      "businessType": "주사업",
      "status": "presented",
      "certainty": "확보",
      "salesDept": "영업본부",
      "salesOwner": "박영업",
      "supportLead": "최선아",
      "fromDate": "2026-04-20",
      "toDate": "-",
      "useStatus": "사용",
      "note": "-"
    },
    {
      "no": 4,
      "code": "P2026011",
      "name": "리테일 데이터 플랫폼",
      "businessType": "주사업",
      "status": "win",
      "certainty": "확보",
      "salesDept": "컨설팅본부",
      "salesOwner": "김영빈",
      "supportLead": "김PMO 책임",
      "fromDate": "2026-03-18",
      "toDate": "2026-12-31",
      "useStatus": "사용",
      "note": "-"
    },
    {
      "no": 5,
      "code": "P2026005",
      "name": "물류 운영 최적화 PoC",
      "businessType": "부사업",
      "status": "loss",
      "certainty": "-",
      "salesDept": "기술본부",
      "salesOwner": "정수영",
      "supportLead": "박정현",
      "fromDate": "2026-02-10",
      "toDate": "2026-04-12",
      "useStatus": "미사용",
      "note": "재제안 검토"
    },
    {
      "no": 6,
      "code": "P2026004",
      "name": "ERP 업그레이드 본사업",
      "businessType": "주사업",
      "status": "running",
      "certainty": "-",
      "salesDept": "영업본부",
      "salesOwner": "박영업",
      "supportLead": "김PMO 책임",
      "fromDate": "2026-02-01",
      "toDate": "2026-12-15",
      "useStatus": "사용",
      "note": "-"
    },
    {
      "no": 7,
      "code": "P2026001",
      "name": "차세대 통합시스템 구축",
      "businessType": "주사업",
      "status": "running",
      "certainty": "-",
      "salesDept": "컨설팅본부",
      "salesOwner": "김영빈",
      "supportLead": "이영택",
      "fromDate": "2026-01-08",
      "toDate": "2026-11-30",
      "useStatus": "사용",
      "note": "-"
    },
    {
      "no": 8,
      "code": "P2026002",
      "name": "그룹 데이터 플랫폼 구축",
      "businessType": "주사업",
      "status": "running",
      "certainty": "-",
      "salesDept": "컨설팅본부",
      "salesOwner": "김영빈",
      "supportLead": "박정현",
      "fromDate": "2026-01-15",
      "toDate": "2026-09-30",
      "useStatus": "사용",
      "note": "이관 예정"
    },
    {
      "no": 9,
      "code": "P2026008",
      "name": "보안 관제 고도화",
      "businessType": "부사업",
      "status": "running",
      "certainty": "-",
      "salesDept": "기술본부",
      "salesOwner": "정수영",
      "supportLead": "최선아",
      "fromDate": "2026-03-02",
      "toDate": "2026-10-31",
      "useStatus": "사용",
      "note": "-"
    },
    {
      "no": 10,
      "code": "P2026006",
      "name": "클라우드 마이그레이션",
      "businessType": "하도",
      "status": "support",
      "certainty": "-",
      "salesDept": "기술본부",
      "salesOwner": "정수영",
      "supportLead": "이영택",
      "fromDate": "2026-02-20",
      "toDate": "2026-06-30",
      "useStatus": "사용",
      "note": "-"
    },
    {
      "no": 11,
      "code": "P2026010",
      "name": "IT 운영 인력 상주",
      "businessType": "협력",
      "status": "support",
      "certainty": "-",
      "salesDept": "기술본부",
      "salesOwner": "정수영",
      "supportLead": "박정현",
      "fromDate": "2026-01-05",
      "toDate": "2026-12-31",
      "useStatus": "사용",
      "note": "-"
    },
    {
      "no": 12,
      "code": "P2025036",
      "name": "AI 챗봇 서비스 구축",
      "businessType": "주사업",
      "status": "done",
      "certainty": "-",
      "salesDept": "컨설팅본부",
      "salesOwner": "김영빈",
      "supportLead": "김PMO 책임",
      "fromDate": "2025-04-01",
      "toDate": "2025-12-20",
      "useStatus": "사용",
      "note": "-"
    },
    {
      "no": 13,
      "code": "P2025028",
      "name": "고객 CRM 통합 구축",
      "businessType": "주사업",
      "status": "done",
      "certainty": "-",
      "salesDept": "영업본부",
      "salesOwner": "박영업",
      "supportLead": "최선아",
      "fromDate": "2025-02-15",
      "toDate": "2025-11-30",
      "useStatus": "사용",
      "note": "-"
    },
    {
      "no": 14,
      "code": "P2025021",
      "name": "보안관제센터 구축",
      "businessType": "부사업",
      "status": "done",
      "certainty": "-",
      "salesDept": "기술본부",
      "salesOwner": "정수영",
      "supportLead": "박정현",
      "fromDate": "2025-01-10",
      "toDate": "2025-10-31",
      "useStatus": "사용",
      "note": "-"
    },
    {
      "no": 15,
      "code": "P2025033",
      "name": "그룹웨어 고도화",
      "businessType": "주사업",
      "status": "win",
      "certainty": "확보",
      "salesDept": "컨설팅본부",
      "salesOwner": "김영빈",
      "supportLead": "이영택",
      "fromDate": "2025-08-12",
      "toDate": "2026-08-31",
      "useStatus": "사용",
      "note": "-"
    },
    {
      "no": 16,
      "code": "P2025040",
      "name": "사내 네트워크 고도화",
      "businessType": "하도",
      "status": "win",
      "certainty": "확보",
      "salesDept": "기술본부",
      "salesOwner": "정수영",
      "supportLead": "박정현",
      "fromDate": "2025-09-01",
      "toDate": "2026-06-30",
      "useStatus": "사용",
      "note": "-"
    },
    {
      "no": 17,
      "code": "P2024045",
      "name": "공공 클라우드 전환 사업",
      "businessType": "주사업",
      "status": "drop",
      "certainty": "-",
      "salesDept": "공공사업본부",
      "salesOwner": "이수영",
      "supportLead": "정수영",
      "fromDate": "2024-09-15",
      "toDate": "-",
      "useStatus": "미사용",
      "note": "-"
    },
    {
      "no": 18,
      "code": "P2024039",
      "name": "스마트팩토리 PoC",
      "businessType": "부사업",
      "status": "loss",
      "certainty": "-",
      "salesDept": "기술본부",
      "salesOwner": "정수영",
      "supportLead": "최선아",
      "fromDate": "2024-07-20",
      "toDate": "2024-09-10",
      "useStatus": "미사용",
      "note": "-"
    },
    {
      "no": 19,
      "code": "P2024033",
      "name": "전사 IT 거버넌스 컨설팅",
      "businessType": "주사업",
      "status": "presented",
      "certainty": "우세",
      "salesDept": "컨설팅본부",
      "salesOwner": "김영빈",
      "supportLead": "김PMO 책임",
      "fromDate": "2024-04-08",
      "toDate": "-",
      "useStatus": "사용",
      "note": "-"
    },
    {
      "no": 20,
      "code": "P2024013",
      "name": "물류 SCM 고도화",
      "businessType": "협력",
      "status": "drop",
      "certainty": "-",
      "salesDept": "영업본부",
      "salesOwner": "박영업",
      "supportLead": "박정현",
      "fromDate": "2024-03-02",
      "toDate": "-",
      "useStatus": "미사용",
      "note": "-"
    }
  ],
  "pagination": {
    "totalCount": 133,
    "pageSize": 10,
    "currentPage": 1,
    "totalPages": 14
  },
  "filterOptions": {
    "salesDepts": [
      "컨설팅본부",
      "영업본부",
      "기술본부",
      "공공사업본부"
    ],
    "certainties": [
      "우세",
      "경쟁",
      "열세",
      "확보"
    ],
    "years": [
      "2024",
      "2025",
      "2026"
    ]
  }
}